Exploring Species Variation
…
#number trees per species per plot
sp_abundance_2 %>%
  mutate(perc_rep = n_trees/total_trees)

## # A tibble: 192 x 7
##     plot total_trees species n_trees est_median  rank perc_rep
##    <dbl>       <int> <chr>     <int>      <dbl> <dbl>    <dbl>
##  1     1         271 AVOF          2       307.    15  0.00738
##  2     1         271 AVRU          5       298.    11  0.0185 
##  3     1         271 BRCY         39       297.    10  0.144  
##  4     1         271 BRGY          7       271.     8  0.0258 
##  5     1         271 CEZI         74       261.     7  0.273  
##  6     1         271 RHAP        129       250.     5  0.476  
##  7     1         271 SOAL         14       200.     3  0.0517 
##  8     1         271 XYMO          1       300.    12  0.00369
##  9     1         271 AVAL          0       193.     1  0      
## 10     1         271 RHMU          0       203.     4  0      
## # ... with 182 more rows
…
